module bitbucket.org/tombrookson/consignment-vessel-service

go 1.13

require (
	github.com/coreos/etcd v3.3.18+incompatible // indirect
	github.com/gogo/protobuf v1.3.1 // indirect
	github.com/golang/protobuf v1.3.2
	github.com/micro/go-micro v1.17.1
	github.com/nats-io/jwt v0.3.2 // indirect
	go.uber.org/atomic v1.5.1 // indirect
	go.uber.org/multierr v1.4.0 // indirect
	go.uber.org/zap v1.13.0 // indirect
	golang.org/x/crypto v0.0.0-20191128160524-b544559bb6d1 // indirect
	golang.org/x/lint v0.0.0-20191125180803-fdd1cda4f05f // indirect
	golang.org/x/net v0.0.0-20191126235420-ef20fe5d7933
	golang.org/x/sys v0.0.0-20191128015809-6d18c012aee9 // indirect
	golang.org/x/tools v0.0.0-20191130070609-6e064ea0cf2d // indirect
	google.golang.org/genproto v0.0.0-20191115221424-83cc0476cb11 // indirect
)
